\relax 
\providecommand\hyper@newdestlabel[2]{}
\catcode `:\active 
\catcode `;\active 
\catcode `!\active 
\catcode `?\active 
\providecommand\HyperFirstAtBeginDocument{\AtBeginDocument}
\HyperFirstAtBeginDocument{\ifx\hyper@anchor\@undefined
\global\let\oldcontentsline\contentsline
\gdef\contentsline#1#2#3#4{\oldcontentsline{#1}{#2}{#3}}
\global\let\oldnewlabel\newlabel
\gdef\newlabel#1#2{\newlabelxx{#1}#2}
\gdef\newlabelxx#1#2#3#4#5#6{\oldnewlabel{#1}{{#2}{#3}}}
\AtEndDocument{\ifx\hyper@anchor\@undefined
\let\contentsline\oldcontentsline
\let\newlabel\oldnewlabel
\fi}
\fi}
\global\let\hyper@last\relax 
\gdef\HyperFirstAtBeginDocument#1{#1}
\providecommand\HyField@AuxAddToFields[1]{}
\providecommand\HyField@AuxAddToCoFields[2]{}
\select@language{french}
\@writefile{toc}{\select@language{french}}
\@writefile{lof}{\select@language{french}}
\@writefile{lot}{\select@language{french}}
\@writefile{lof}{\contentsline {figure}{\numberline {1}{\ignorespaces Ouverture d'un fichier \texttt  {bsp} dans \texttt  {Notepad++}}}{1}{figure.0.1}}
\@writefile{lof}{\contentsline {figure}{\numberline {2}{\ignorespaces Ouverture d'un fichier \texttt  {vmf} dans \texttt  {Notepad++}}}{2}{figure.0.2}}
\@writefile{lof}{\contentsline {figure}{\numberline {3}{\ignorespaces Map g\IeC {\'e}n\IeC {\'e}r\IeC {\'e}e apr\IeC {\`e}s compilation VBSP}}{3}{figure.0.3}}
\@writefile{lol}{\contentsline {lstlisting}{\numberline {1}Writer.java}{3}{lstlisting.0.1}}
\@writefile{lol}{\contentsline {lstlisting}{\numberline {2}init}{4}{lstlisting.0.2}}
\@writefile{lol}{\contentsline {lstlisting}{\numberline {3}end}{4}{lstlisting.0.3}}
\@writefile{lol}{\contentsline {lstlisting}{\numberline {4}Side}{5}{lstlisting.0.4}}
\@writefile{lof}{\contentsline {figure}{\numberline {4}{\ignorespaces Premi\IeC {\`e}re map cr\IeC {\'e}\IeC {\'e}e depuis Java}}{6}{figure.0.4}}
\@writefile{lol}{\contentsline {lstlisting}{\numberline {5}fichier\_vmt}{7}{lstlisting.0.5}}
\@writefile{lol}{\contentsline {lstlisting}{\numberline {6}prefab}{10}{lstlisting.0.6}}
