\relax 
\providecommand\hyper@newdestlabel[2]{}
\catcode `:\active 
\catcode `;\active 
\catcode `!\active 
\catcode `?\active 
\providecommand\HyperFirstAtBeginDocument{\AtBeginDocument}
\HyperFirstAtBeginDocument{\ifx\hyper@anchor\@undefined
\global\let\oldcontentsline\contentsline
\gdef\contentsline#1#2#3#4{\oldcontentsline{#1}{#2}{#3}}
\global\let\oldnewlabel\newlabel
\gdef\newlabel#1#2{\newlabelxx{#1}#2}
\gdef\newlabelxx#1#2#3#4#5#6{\oldnewlabel{#1}{{#2}{#3}}}
\AtEndDocument{\ifx\hyper@anchor\@undefined
\let\contentsline\oldcontentsline
\let\newlabel\oldnewlabel
\fi}
\fi}
\global\let\hyper@last\relax 
\gdef\HyperFirstAtBeginDocument#1{#1}
\providecommand\HyField@AuxAddToFields[1]{}
\providecommand\HyField@AuxAddToCoFields[2]{}
\select@language{french}
\@writefile{toc}{\select@language{french}}
\@writefile{lof}{\select@language{french}}
\@writefile{lot}{\select@language{french}}
\@writefile{lol}{\contentsline {lstlisting}{\numberline {1}draw\_square}{1}{lstlisting.0.1}}
\@writefile{lol}{\contentsline {lstlisting}{\numberline {2}draw\_square\_fan}{2}{lstlisting.0.2}}
\@writefile{lol}{\contentsline {lstlisting}{\numberline {3}draw\_square\_strip}{2}{lstlisting.0.3}}
\@writefile{lol}{\contentsline {lstlisting}{\numberline {4}draw\_cube}{2}{lstlisting.0.4}}
\@writefile{lol}{\contentsline {lstlisting}{\numberline {5}rotation}{3}{lstlisting.0.5}}
\@writefile{lol}{\contentsline {lstlisting}{\numberline {6}draw\_sphere\_points}{5}{lstlisting.0.6}}
\@writefile{lol}{\contentsline {lstlisting}{\numberline {7}draw\_sphere}{6}{lstlisting.0.7}}
\@writefile{lol}{\contentsline {lstlisting}{\numberline {8}setFirstView}{7}{lstlisting.0.8}}
\@writefile{lol}{\contentsline {lstlisting}{\numberline {9}Run}{8}{lstlisting.0.9}}
\@writefile{lol}{\contentsline {lstlisting}{\numberline {10}vitesses\_rotations}{9}{lstlisting.0.10}}
\@writefile{lol}{\contentsline {lstlisting}{\numberline {11}keyPressed}{9}{lstlisting.0.11}}
\@writefile{lol}{\contentsline {lstlisting}{\numberline {12}render}{10}{lstlisting.0.12}}
\@writefile{lol}{\contentsline {lstlisting}{\numberline {13}light}{12}{lstlisting.0.13}}
\@writefile{lol}{\contentsline {lstlisting}{\numberline {14}Texture}{14}{lstlisting.0.14}}
\@writefile{lol}{\contentsline {lstlisting}{\numberline {15}texturing}{15}{lstlisting.0.15}}
\@writefile{lol}{\contentsline {lstlisting}{\numberline {16}Plane}{16}{lstlisting.0.16}}
\@writefile{lol}{\contentsline {lstlisting}{\numberline {17}Object}{17}{lstlisting.0.17}}
\@writefile{lol}{\contentsline {lstlisting}{\numberline {18}Scene}{18}{lstlisting.0.18}}
\@writefile{lol}{\contentsline {lstlisting}{\numberline {19}createScene}{18}{lstlisting.0.19}}
\@writefile{lol}{\contentsline {lstlisting}{\numberline {20}name}{20}{lstlisting.0.20}}
\@writefile{lol}{\contentsline {lstlisting}{\numberline {21}projet}{21}{lstlisting.0.21}}
\@writefile{lol}{\contentsline {lstlisting}{\numberline {22}XMLFile}{22}{lstlisting.0.22}}
\@writefile{lol}{\contentsline {lstlisting}{\numberline {23}loadFromXML}{22}{lstlisting.0.23}}
\@writefile{lol}{\contentsline {lstlisting}{\numberline {24}Camera}{24}{lstlisting.0.24}}
\@writefile{lol}{\contentsline {lstlisting}{\numberline {25}Deplacement}{24}{lstlisting.0.25}}
\@writefile{lol}{\contentsline {lstlisting}{\numberline {26}adjust}{24}{lstlisting.0.26}}
\@writefile{lol}{\contentsline {lstlisting}{\numberline {27}gluPerspective}{25}{lstlisting.0.27}}
